(footprint "PG1350_socket_smdLed" (version 20211014) (generator pcbnew)
  (layer "F.Cu")
  (tedit 606F8C68)
  (descr "Kailh \"Choc\" PG1350 keyswitch socket mount")
  (tags "kailh,choc")
  (attr smd)
  (fp_text reference "SW50" (at -5 -2) (layer "B.SilkS")
    (effects (font (size 1 1) (thickness 0.15)) (justify mirror))
    (tstamp 0bab1dbe-fcc5-4d74-be14-9ac5576e424c)
  )
  (fp_text value "SW_Push" (at 0 8.255) (layer "F.Fab")
    (effects (font (size 1 1) (thickness 0.15)))
    (tstamp 3d1e36e2-7427-47e3-8d16-6e7ff0ba31db)
  )
  (fp_text user "${REFERENCE}" (at -3 5) (layer "B.Fab")
    (effects (font (size 1 1) (thickness 0.15)) (justify mirror))
    (tstamp 167e90d8-f212-4951-8f01-158b9575f7a8)
  )
  (fp_text user "${VALUE}" (at -1 9) (layer "B.Fab")
    (effects (font (size 1 1) (thickness 0.15)) (justify mirror))
    (tstamp d89ffe95-cc0c-4ba1-9b65-c94557ef9a8c)
  )
  (fp_line (start 1.5 8.2) (end -1.5 8.2) (layer "B.SilkS") (width 0.15) (tstamp 0231457e-e42c-490c-a32a-1c7605463362))
  (fp_line (start -1.5 8.2) (end -2 7.7) (layer "B.SilkS") (width 0.15) (tstamp 0532f4b6-fd5b-45ec-a15b-12cff266048e))
  (fp_line (start -2 6.7) (end -2 7.7) (layer "B.SilkS") (width 0.15) (tstamp 2f8ed9bc-1a86-4c95-b314-ca37db0335d5))
  (fp_line (start 2 4.2) (end 1.5 3.7) (layer "B.SilkS") (width 0.15) (tstamp 4ed01ef9-33af-4999-b8b2-3959d8d64ff6))
  (fp_line (start 2 7.7) (end 1.5 8.2) (layer "B.SilkS") (width 0.15) (tstamp 69f4cbb4-9f64-4cee-b575-234e8bf4c011))
  (fp_line (start -2.5 2.2) (end -2.5 1.5) (layer "B.SilkS") (width 0.15) (tstamp 820397e1-3831-4b97-9990-8ea2be1e2cd3))
  (fp_line (start -7 1.5) (end -7 2) (layer "B.SilkS") (width 0.15) (tstamp 866ce532-bb32-4847-bd0d-413464dac7cb))
  (fp_line (start 1.5 3.7) (end -1 3.7) (layer "B.SilkS") (width 0.15) (tstamp 8e2630af-3224-40bc-921d-c7b74fed7222))
  (fp_line (start -2.5 1.5) (end -7 1.5) (layer "B.SilkS") (width 0.15) (tstamp ce51c7d1-7e0f-44db-b46e-e19b4b72e93a))
  (fp_line (start -7 6.2) (end -2.5 6.2) (layer "B.SilkS") (width 0.15) (tstamp eded66ad-4e92-442b-acf9-43ac99dfe979))
  (fp_line (start -7 5.6) (end -7 6.2) (layer "B.SilkS") (width 0.15) (tstamp f14fa9b7-6b29-49f0-80ee-5e44966a31d4))
  (fp_arc (start -2.5 6.2) (mid -2.146447 6.346447) (end -2 6.7) (layer "B.SilkS") (width 0.15) (tstamp 92db0fd8-182f-4c14-8ba2-88f18eed7e40))
  (fp_arc (start -1 3.7) (mid -2.06066 3.26066) (end -2.5 2.2) (layer "B.SilkS") (width 0.15) (tstamp e3f1addf-7772-44e3-aaa5-da3d8e96e39d))
  (fp_line (start -6 -7) (end -7 -7) (layer "F.SilkS") (width 0.15) (tstamp 2118fe9c-57d6-4217-8629-e71335f1668d))
  (fp_line (start -7 7) (end -6 7) (layer "F.SilkS") (width 0.15) (tstamp 353ae420-7285-45b7-9feb-f4017a995506))
  (fp_line (start -7 7) (end -7 6) (layer "F.SilkS") (width 0.15) (tstamp 601bc315-3c01-4684-8ff6-8860ee61b749))
  (fp_line (start -1.4 -6.2) (end 2.4 -6.2) (layer "F.SilkS") (width 0.12) (tstamp 67baeae7-739f-4a52-8f6d-425e0a4ddea3))
  (fp_line (start 2.4 -6.2) (end 2.4 -3.2) (layer "F.SilkS") (width 0.12) (tstamp 67c8e250-d668-4ab8-bbb2-8bbe0af283c5))
  (fp_line (start 6 7) (end 7 7) (layer "F.SilkS") (width 0.15) (tstamp 69e52541-1b58-45a4-81a3-01cc21b512cf))
  (fp_line (start 7 6) (end 7 7) (layer "F.SilkS") (width 0.15) (tstamp 6b5b14b3-af71-40b3-aec6-0d9cf9b7e6d1))
  (fp_line (start -7 -6) (end -7 -7) (layer "F.SilkS") (width 0.15) (tstamp a083bc11-2b86-48e9-be00-e9ff98675e6a))
  (fp_line (start 7 7) (end 6 7) (layer "F.SilkS") (width 0.15) (tstamp a83f04a6-3786-41b7-8569-43266eb2766d))
  (fp_line (start 7 -7) (end 6 -7) (layer "F.SilkS") (width 0.15) (tstamp bcd2bceb-6e66-4130-bd71-223f8df53f55))
  (fp_line (start 7 -7) (end 7 -6) (layer "F.SilkS") (width 0.15) (tstamp c00443c5-6338-424c-9bad-eccd076ca7d9))
  (fp_line (start 2.4 -3.2) (end -1.4 -3.2) (layer "F.SilkS") (width 0.12) (tstamp eb1e926c-4535-4541-b220-2fe8a2f9ce5c))
  (fp_poly (pts
      (xy 2.6 -3)
      (xy 0.9 -3)
      (xy 2.6 -4.7)
    ) (layer "F.SilkS") (width 0.1) (fill solid) (tstamp 8419de9a-83d9-40e3-9dd9-70c6b5e2c709))
  (fp_line (start 4.29 7.3) (end 4.29 4.64) (layer "Eco1.User") (width 0.12) (tstamp 15e3d3fa-be68-4002-bcdd-4ca353928206))
  (fp_line (start 2 7.3) (end 2 7.7) (layer "Eco1.User") (width 0.12) (tstamp 3732d1a8-356d-43bd-9b64-6b148adcb9b9))
  (fp_line (start 4.295 4.63) (end 2.005 4.63) (layer "Eco1.User") (width 0.12) (tstamp 400c5852-1c4d-4d52-bee9-5ab1b1c67b20))
  (fp_line (start -9.29 2.47) (end -7 2.47) (layer "Eco1.User") (width 0.12) (tstamp 5a32360d-87ae-4449-9b9f-09f45c884586))
  (fp_line (start 1.5 3.7) (end -1 3.7) (layer "Eco1.User") (width 0.15) (tstamp 5b8463ac-5404-40fb-a8c2-9e0c0780bcc0))
  (fp_line (start -9.285 5.1) (end -6.995 5.1) (layer "Eco1.User") (width 0.12) (tstamp 652e7cfd-9603-4a9c-857e-6494ae972d03))
  (fp_line (start -1.5 8.2) (end -2 7.7) (layer "Eco1.User") (width 0.15) (tstamp 6a2849e1-711e-416d-a267-06fa5f8aa6ab))
  (fp_line (start -7 6.2) (end -2.5 6.2) (layer "Eco1.User") (width 0.15) (tstamp 7320c89e-16f0-4a7a-9b31-fe044cbc0571))
  (fp_line (start -2 6.7) (end -2 7.7) (layer "Eco1.User") (width 0.15) (tstamp 9636e543-5538-4743-a467-179370aa59b7))
  (fp_line (start 2 7.7) (end 1.5 8.2) (layer "Eco1.User") (width 0.15) (tstamp 96ae6e9f-9849-4b91-a782-7ba7842972cb))
  (fp_line (start -2.5 2.2) (end -2.5 1.5) (layer "Eco1.User") (width 0.15) (tstamp a5f075fe-0106-4909-84ec-e88d1a58d11b))
  (fp_line (start -6.995 5.1) (end -7 6.2) (layer "Eco1.User") (width 0.12) (tstamp abf3f947-27dc-4d5c-a489-851767636f05))
  (fp_line (start 2 4.25) (end 2.005 4.66) (layer "Eco1.User") (width 0.12) (tstamp b387b58e-7467-41bc-a9a7-74f458e853a4))
  (fp_line (start -7 1.5) (end -7 2.47) (layer "Eco1.User") (width 0.12) (tstamp b5396cbc-8c44-4455-bf8c-e5210bfa96ce))
  (fp_line (start -9.29 2.47) (end -9.28 5.09) (layer "Eco1.User") (width 0.12) (tstamp bab48a61-499c-4491-8bb4-e748c98bcbdc))
  (fp_line (start 1.5 8.2) (end -1.5 8.2) (layer "Eco1.User") (width 0.15) (tstamp d1539eb9-dc0c-4839-bacc-098e5ba91300))
  (fp_line (start -2.5 1.5) (end -7 1.5) (layer "Eco1.User") (width 0.15) (tstamp d70b6c6d-1793-4442-823a-c18c4f02cc53))
  (fp_line (start 2 4.2) (end 1.5 3.7) (layer "Eco1.User") (width 0.15) (tstamp f0b70097-0171-4a5d-b7c3-acfaed7758d3))
  (fp_line (start 4.29 7.3) (end 1.99 7.3) (layer "Eco1.User") (width 0.12) (tstamp ffe64f7e-5b58-4b6e-991b-ad872176357b))
  (fp_arc (start -1 3.7) (mid -2.06066 3.26066) (end -2.5 2.2) (layer "Eco1.User") (width 0.15) (tstamp 07382a5d-ef44-4f7e-aed8-d69c30e14458))
  (fp_arc (start -2.5 6.2) (mid -2.146447 6.346447) (end -2 6.7) (layer "Eco1.User") (width 0.15) (tstamp bb06bf20-b0db-4acb-817a-7da990605f0a))
  (fp_circle (center 0 0) (end 1.6 0) (layer "Eco1.User") (width 0.12) (fill none) (tstamp 8fa6b01a-1175-49cd-83d9-08932e579880))
  (fp_line (start -6.9 6.9) (end 6.9 6.9) (layer "Eco2.User") (width 0.15) (tstamp 64acc753-4694-4564-9040-b202140889bc))
  (fp_line (start 6.9 -6.9) (end -6.9 -6.9) (layer "Eco2.User") (width 0.15) (tstamp 7a78bd52-1774-416a-8d7c-40dd562d8a35))
  (fp_line (start 6.9 -6.9) (end 6.9 6.9) (layer "Eco2.User") (width 0.15) (tstamp 913e1e3b-4299-4132-b412-ddb4c04fd79e))
  (fp_line (start -2.6 -3.1) (end 2.6 -3.1) (layer "Eco2.User") (width 0.15) (tstamp a4504276-9198-40ca-a862-5857c52f27d4))
  (fp_line (start 2.6 -6.3) (end -2.6 -6.3) (layer "Eco2.User") (width 0.15) (tstamp ba96596d-5a77-410b-bfb6-79ad7b6cb741))
  (fp_line (start -6.9 6.9) (end -6.9 -6.9) (layer "Eco2.User") (width 0.15) (tstamp dde6074a-29a1-4570-bf63-da544e7b33de))
  (fp_line (start -2.6 -3.1) (end -2.6 -6.3) (layer "Eco2.User") (width 0.15) (tstamp f221bcbd-ffcb-4c9a-a11f-854cc4c3ed95))
  (fp_line (start 2.6 -3.1) (end 2.6 -6.3) (layer "Eco2.User") (width 0.15) (tstamp fac3bf25-765b-4196-8a0a-552266551ac4))
  (fp_line (start 4.5 7.25) (end 2 7.25) (layer "B.Fab") (width 0.12) (tstamp 1065cbc2-c55c-4065-8b5a-a085fcdd777d))
  (fp_line (start -1.503153 8.187951) (end -2.003153 7.687951) (layer "B.Fab") (width 0.15) (tstamp 3d8a53ce-4596-4b6a-b2a5-7ab9be90d681))
  (fp_line (start 4.5 4.75) (end 4.5 7.25) (layer "B.Fab") (width 0.12) (tstamp 46e62736-bbbc-49bc-aa04-b8f27abbbbc9))
  (fp_line (start -7.003153 6.187951) (end -2.503153 6.187951) (layer "B.Fab") (width 0.15) (tstamp 570fedff-2c38-474b-9f86-b9179853d170))
  (fp_line (start -2.003153 6.687951) (end -2.003153 7.687951) (layer "B.Fab") (width 0.15) (tstamp 57cdeeae-254b-43dc-abfd-a21a5cde885e))
  (fp_line (start 1.496847 8.187951) (end -1.503153 8.187951) (layer "B.Fab") (width 0.15) (tstamp 58b8b3e5-d9af-4c7e-bf87-59ba2dccc490))
  (fp_line (start -2.503153 1.487951) (end -7.003153 1.487951) (layer "B.Fab") (width 0.15) (tstamp 592835bc-5ae6-45e7-9ff3-9cdc268963f4))
  (fp_line (start -9.5 2.5) (end -7 2.5) (layer "B.Fab") (width 0.12) (tstamp 9b5c512d-2f39-491c-8b4b-d01069a61ec5))
  (fp_line (start 2 4.75) (end 4.5 4.75) (layer "B.Fab") (width 0.12) (tstamp 9d354c7d-d9c9-4067-a034-7e46bc060832))
  (fp_line (start 1.496847 3.687951) (end -1.003153 3.687951) (layer "B.Fab") (width 0.15) (tstamp a00ba6d0-c331-4641-bace-e07d88c076d9))
  (fp_line (start 1.996847 7.687951) (end 1.496847 8.187951) (layer "B.Fab") (width 0.15) (tstamp a30b2a32-4682-42ed-94df-367463e89c22))
  (fp_line (start -2.503153 2.187951) (end -2.503153 1.487951) (layer "B.Fab") (width 0.15) (tstamp ba4c7fbb-4b7a-41ba-b498-a43d96c2d329))
  (fp_line (start -7.003153 1.487951) (end -7.003153 6.187951) (layer "B.Fab") (width 0.12) (tstamp bb0b643a-6d8c-4239-901d-01b5673138d0))
  (fp_line (start 1.996847 4.237951) (end 1.996847 7.687951) (layer "B.Fab") (width 0.12) (tstamp c1ebaafe-a77f-41f7-8576-7d40be2b3000))
  (fp_line (start 1.996847 4.187951) (end 1.496847 3.687951) (layer "B.Fab") (width 0.15) (tstamp eefd8a3b-7450-4387-8e08-408f236a50de))
  (fp_line (start -7 5) (end -9.5 5) (layer "B.Fab") (width 0.12) (tstamp f699c7fe-7a87-441c-a83a-7480724594cf))
  (fp_line (start -9.5 5) (end -9.5 2.5) (layer "B.Fab") (width 0.12) (tstamp f9df54b5-39a9-40ce-93b0-a8301b070b52))
  (fp_arc (start -1.003153 3.687951) (mid -2.063813 3.248611) (end -2.503153 2.187951) (layer "B.Fab") (width 0.15) (tstamp 15d54a20-e01c-4966-b835-f54dbba0ea7a))
  (fp_arc (start -2.503153 6.187951) (mid -2.1496 6.334398) (end -2.003153 6.687951) (layer "B.Fab") (width 0.15) (tstamp a81e72bd-fc7f-4485-b3e2-5a1cb7866c60))
  (fp_line (start 7.5 7.5) (end -7.5 7.5) (layer "F.Fab") (width 0.15) (tstamp 63b736d3-787d-4c51-9a29-e8b2040cf86d))
  (fp_line (start -7.5 -7.5) (end 7.5 -7.5) (layer "F.Fab") (width 0.15) (tstamp 733dd175-2332-4fd5-ab2e-fe0902297cac))
  (fp_line (start -7.5 7.5) (end -7.5 -7.5) (layer "F.Fab") (width 0.15) (tstamp d6b09754-13ee-4202-9eab-83dfc5cdc101))
  (fp_line (start 7.5 -7.5) (end 7.5 7.5) (layer "F.Fab") (width 0.15) (tstamp d8116a77-b4f7-48fd-829d-482b20d080aa))
  (pad "" np_thru_hole circle (at -5 3.75) (size 3 3) (drill 3) (layers *.Cu *.Mask) (tstamp 0f7570f2-6b30-4d7e-8f9a-f6741340472a))
  (pad "" np_thru_hole circle (at 0 0) (size 3.429 3.429) (drill 3.429) (layers *.Cu *.Mask) (tstamp 9f167e9b-ea53-49ab-a639-7a3c1e3974ab))
  (pad "" np_thru_hole circle (at 5.22 -4.2) (size 1.2 1.2) (drill 1.2) (layers *.Cu *.Mask) (tstamp ba79cea0-d10d-40f5-874b-d0b16be1b6f1))
  (pad "" np_thru_hole circle (at 5.5 0) (size 1.7018 1.7018) (drill 1.7018) (layers *.Cu *.Mask) (tstamp c30693bf-f6a1-4bc3-b219-76d4292126a4))
  (pad "" np_thru_hole circle (at 0 5.95) (size 3 3) (drill 3) (layers *.Cu *.Mask) (tstamp c963d796-f426-4002-ab84-a49d42f620d9))
  (pad "" np_thru_hole circle (at -5.5 0) (size 1.7018 1.7018) (drill 1.7018) (layers *.Cu *.Mask) (tstamp e076f6a1-68e9-4424-9078-1b864519f956))
  (pad "1" smd rect (at 3.275 5.95) (size 2.6 2.6) (layers "B.Cu" "B.Paste" "B.Mask") (tstamp d9bd117d-a29a-4cb1-bc46-c7049beb9ca4))
  (pad "2" smd rect (at -8.275 3.75) (size 2.6 2.6) (layers "B.Cu" "B.Paste" "B.Mask") (tstamp 4a3fe091-1220-4e47-ba68-aba37994f261))
  (pad "3" smd rect (at 1.5 -4.7) (size 1.5 2.6) (layers "F.Cu" "F.Paste" "F.Mask") (tstamp 28a33f48-361f-4a6e-b7a5-a2351b2468e1))
  (pad "4" smd rect (at -1.5 -4.7 180) (size 1.5 2.6) (layers "F.Cu" "F.Paste" "F.Mask") (tstamp 19346ab7-0099-403a-87f2-3f1b74703c13))
)
