(footprint "rev41lp_edgecutBottomPlate" (version 20211014) (generator pcbnew)
  (layer "F.Cu")
  (tedit 606F89F1)
  (attr through_hole)
  (fp_text reference "rev41lp_edgecutPCB" (at 0 0.5) (layer "F.SilkS") hide
    (effects (font (size 1 1) (thickness 0.15)))
    (tstamp 40d35b8f-060b-4e9f-94cb-d0a28248c15a)
  )
  (fp_text value "rev41lp_edgecutBottomPlate" (at 0 -0.5) (layer "F.Fab")
    (effects (font (size 1 1) (thickness 0.15)))
    (tstamp 6023972f-f62a-4ac9-8774-a2e1c11fb886)
  )
  (fp_line (start 119.323515 48.493552) (end 108.30683 0.775048) (layer "Edge.Cuts") (width 0.2) (tstamp 0ca3cbea-fc9b-47f9-ae3b-0925f2fd8021))
  (fp_line (start 107.33246 0) (end 53.959882 0) (layer "Edge.Cuts") (width 0.2) (tstamp 1050b144-bc55-479e-b504-ae219b4945a7))
  (fp_line (start -108.30683 0.775048) (end -119.323515 48.493552) (layer "Edge.Cuts") (width 0.2) (tstamp 11396c0a-7406-4a39-b2ed-88cd76976a9f))
  (fp_line (start -38.753975 82.329336) (end -21.009942 86.425869) (layer "Edge.Cuts") (width 0.2) (tstamp 1bf6aae8-41b0-4602-8d85-c35d4757ecf8))
  (fp_line (start -11.988661 9.163738) (end -49.460861 0.512599) (layer "Edge.Cuts") (width 0.2) (tstamp 1ed98b60-f6ae-4b1e-b663-4bda1e7c40b1))
  (fp_line (start -16.510921 86.938468) (end 16.510921 86.938468) (layer "Edge.Cuts") (width 0.2) (tstamp 358df720-2757-4e53-a0be-88cac8eba327))
  (fp_line (start -98.756722 53.741992) (end -84.840673 53.741992) (layer "Edge.Cuts") (width 0.2) (tstamp 558535ea-45e5-44f3-8ca9-c4baee84a92c))
  (fp_line (start 103.255744 53.229393) (end 118.574096 49.692873) (layer "Edge.Cuts") (width 0.2) (tstamp 5dffa079-6a17-488a-ab18-399990185622))
  (fp_line (start 82.561961 53.741992) (end 98.756722 53.741991) (layer "Edge.Cuts") (width 0.2) (tstamp 6b55bf3c-fe03-484e-a038-e8709ab8ffac))
  (fp_line (start -55.605052 76.74074) (end -41.416042 76.740739) (layer "Edge.Cuts") (width 0.2) (tstamp 6bd82186-bc6c-4154-bccd-9776247dc1bc))
  (fp_line (start -53.959882 -0.000001) (end -107.33246 0) (layer "Edge.Cuts") (width 0.2) (tstamp 787f4423-c07b-4198-9684-b28521913120))
  (fp_line (start 39.343321 2.645225) (end -6.003106 -7.823822) (layer "Edge.Cuts") (width 0.2) (tstamp 8a989642-a5d4-421a-9f2f-b8e0416ff993))
  (fp_line (start 41.416042 76.74074) (end 55.605051 76.74074) (layer "Edge.Cuts") (width 0.2) (tstamp 95094555-fc4f-4503-aed3-5e381f70f805))
  (fp_line (start -80.341652 54.25459) (end -57.380101 59.555682) (layer "Edge.Cuts") (width 0.2) (tstamp a656e0e8-b1a6-407a-81fc-eb30220b7c24))
  (fp_line (start -118.574096 49.692873) (end -103.255744 53.229393) (layer "Edge.Cuts") (width 0.2) (tstamp b0730e2f-ca39-4bb5-85db-4586e18d8e09))
  (fp_line (start -40.441671 77.515789) (end -39.503394 81.579917) (layer "Edge.Cuts") (width 0.2) (tstamp bdf81eb4-f2a4-4379-8697-ee12411924ae))
  (fp_line (start 57.380101 59.555682) (end 82.561961 53.741992) (layer "Edge.Cuts") (width 0.2) (tstamp c0fd9c26-9488-4519-88ea-b54ccaff36c6))
  (fp_line (start 39.503394 81.579917) (end 40.441671 77.515789) (layer "Edge.Cuts") (width 0.2) (tstamp cd9d57f8-90ea-4917-9b40-1834e30e061c))
  (fp_line (start 49.460861 0.512598) (end 40.259348 2.633889) (layer "Edge.Cuts") (width 0.2) (tstamp e61588bf-8096-4e27-aa77-ebbc0a0c7cd8))
  (fp_line (start -56.605052 60.530052) (end -56.605052 75.74074) (layer "Edge.Cuts") (width 0.2) (tstamp ec554ec0-30f1-4962-a91a-9a722fadb6e3))
  (fp_line (start 56.605052 75.74074) (end 56.605052 60.530052) (layer "Edge.Cuts") (width 0.2) (tstamp ec78ecc8-aae4-4fc2-bbe2-799900fb2e23))
  (fp_line (start -7.200363 -7.073925) (end -10.776125 8.414401) (layer "Edge.Cuts") (width 0.2) (tstamp fa0c91db-548a-41e0-b5fb-6b9738fc3c5d))
  (fp_line (start 21.009942 86.425869) (end 38.753975 82.329336) (layer "Edge.Cuts") (width 0.2) (tstamp fd15d273-3e34-4da2-8e8f-7b2d3730af76))
  (fp_arc (start 119.323515 48.493552) (mid 119.19719 49.24841) (end 118.574096 49.692873) (layer "Edge.Cuts") (width 0.2) (tstamp 0a6f6371-93ab-40f0-8823-8c66d1e60133))
  (fp_arc (start -10.776776 8.41722) (mid -11.221228 9.040317) (end -11.976099 9.166638) (layer "Edge.Cuts") (width 0.2) (tstamp 0bb92668-804b-45da-91cb-03622a63cdc2))
  (fp_arc (start -38.753975 82.329336) (mid -39.236131 82.062073) (end -39.503394 81.579917) (layer "Edge.Cuts") (width 0.2) (tstamp 0ce8c6a4-34c7-493e-99d5-d1ceecdde7ad))
  (fp_arc (start 49.460861 0.512599) (mid 51.695817 0.128557) (end 53.959882 0) (layer "Edge.Cuts") (width 0.2) (tstamp 1135c037-e21c-4d68-a88f-9a7bb44b9df8))
  (fp_arc (start 103.255743 53.229393) (mid 101.020786 53.613423) (end 98.756722 53.741991) (layer "Edge.Cuts") (width 0.2) (tstamp 1594eded-59d5-4eae-9b36-c20db66a1076))
  (fp_arc (start 56.605052 75.74074) (mid 56.31206 76.447752) (end 55.605051 76.74074) (layer "Edge.Cuts") (width 0.2) (tstamp 42acab11-5baf-4164-bc92-74f4e6a17ccc))
  (fp_arc (start -53.959882 -0.000001) (mid -51.695818 0.128562) (end -49.460861 0.512598) (layer "Edge.Cuts") (width 0.2) (tstamp 44b5202a-07f2-4a73-8ce6-9cb1fb36bf98))
  (fp_arc (start 40.244726 2.638295) (mid 39.794418 2.693212) (end 39.343321 2.645225) (layer "Edge.Cuts") (width 0.2) (tstamp 4ed0075b-5d1f-4d6e-a889-0e1534a03095))
  (fp_arc (start -16.510921 86.938468) (mid -18.774985 86.809905) (end -21.009942 86.425869) (layer "Edge.Cuts") (width 0.2) (tstamp 4f645057-bdab-4cca-b3cc-f95ae6eb32d6))
  (fp_arc (start -84.840673 53.741991) (mid -82.576609 53.870554) (end -80.341652 54.25459) (layer "Edge.Cuts") (width 0.2) (tstamp 5289fa72-e34e-48dc-9961-25c7c00e6319))
  (fp_arc (start 39.503394 81.579917) (mid 39.236677 82.062628) (end 38.753975 82.329336) (layer "Edge.Cuts") (width 0.2) (tstamp 5dcb2060-1ae7-4f2c-a918-8282690f08d0))
  (fp_arc (start 40.441672 77.515789) (mid 40.793521 76.958127) (end 41.416042 76.74074) (layer "Edge.Cuts") (width 0.2) (tstamp 73418992-1fbc-4a7f-8440-507d6a351a65))
  (fp_arc (start -118.574096 49.692873) (mid -119.197193 49.248422) (end -119.323515 48.493552) (layer "Edge.Cuts") (width 0.2) (tstamp 88f959b6-b13c-474c-9ff7-a308c5d6f5a0))
  (fp_arc (start -55.605052 76.74074) (mid -56.312159 76.447847) (end -56.605052 75.74074) (layer "Edge.Cuts") (width 0.2) (tstamp 8f2cac82-42e0-4292-b0a1-8b4d8be6d583))
  (fp_arc (start -108.30683 0.775049) (mid -107.954975 0.217391) (end -107.33246 0) (layer "Edge.Cuts") (width 0.2) (tstamp 9dd31128-8cad-4070-8f0d-32fc6e2673d9))
  (fp_arc (start 107.332459 0) (mid 107.954971 0.217385) (end 108.30683 0.775048) (layer "Edge.Cuts") (width 0.2) (tstamp a2733dfd-d388-421a-a58f-438ea76e98c7))
  (fp_arc (start -57.380101 59.555682) (mid -56.822443 59.907537) (end -56.605052 60.530052) (layer "Edge.Cuts") (width 0.2) (tstamp b1480e00-1742-4fae-92ab-c6ba3b19eaf4))
  (fp_arc (start 56.605052 60.530052) (mid 56.822458 59.907551) (end 57.380101 59.555682) (layer "Edge.Cuts") (width 0.2) (tstamp bc1bbe6e-d2c2-4689-a403-ee606a234e5b))
  (fp_arc (start -98.756723 53.741992) (mid -101.020787 53.613429) (end -103.255744 53.229393) (layer "Edge.Cuts") (width 0.2) (tstamp bd39ca3d-40c4-4a99-9dcf-436eb1b69246))
  (fp_arc (start -41.416042 76.740739) (mid -40.793527 76.958131) (end -40.441671 77.515789) (layer "Edge.Cuts") (width 0.2) (tstamp c8d4e78f-ef1d-4aff-9293-8fc59952148a))
  (fp_arc (start -7.200363 -7.073925) (mid -6.757044 -7.696834) (end -6.003106 -7.823822) (layer "Edge.Cuts") (width 0.2) (tstamp da6e5c01-b15d-417c-b877-0008cc20fd67))
  (fp_arc (start 21.009942 86.425869) (mid 18.774985 86.809904) (end 16.510921 86.938468) (layer "Edge.Cuts") (width 0.2) (tstamp f9c0c519-46f2-4bdf-a589-dc45b99919f3))
)
